
#################################################################
# Summary Statistics
#################################################################

DIC = 1241.99

                               Mean    SD  2.5%    5%   25%   50%   75%   95% 97.5%
Epsilon.1                     2.620 0.893 1.274 1.416 1.982 2.481 3.102 4.328 4.752
Epsilon.2                     3.911 1.402 1.811 2.089 2.914 3.709 4.663 6.405 7.200
p.global.Chortipus_grp        0.055 0.044 0.003 0.005 0.021 0.044 0.078 0.142 0.163
p.global.Cicadomorphe         0.107 0.082 0.006 0.011 0.042 0.089 0.152 0.268 0.303
p.global.Conocephalus_grp     0.113 0.087 0.003 0.007 0.043 0.098 0.165 0.278 0.314
p.global.Orchestia gamarellus 0.162 0.118 0.007 0.013 0.066 0.141 0.233 0.386 0.434
p.global.Saldidae             0.429 0.107 0.206 0.253 0.361 0.429 0.497 0.602 0.631
p.global.Sphaeroma            0.134 0.047 0.040 0.057 0.102 0.135 0.167 0.210 0.228
