,Meand13C,SDd13C,Meand15N,SDd15N
Chortipus_grp,0.39,1.13,3.4,0.98
Cicadomorphe,0.39,1.13,3.4,0.98
Orchestia gamarellus,0.39,1.13,3.4,0.98
Conocephalus_grp,0.39,1.13,3.4,0.98
Saldidae,0.39,1.13,3.4,0.98
Sphaeroma,0.39,1.13,3.4,0.98
