Location,Period,d13C,d15N
CA,J,-18.4672560341,14.1120194192
CA,J,-17.6112893706,14.25576811
CA,J,-16.657063812,15.140375438
CR,J,-16.4504162388,15.220794286
CR,S,-16.242187838248,16.8516033331
CR,J,-15.9510179369,15.4308885264
CR,S,-14.8515151370566,16.3222357233
CR,S,-14.797238436318,16.2014674473
CR,J,-14.6381980601,16.427077006
CR,S,-14.4372251937583,15.9780461367
CR,S,-14.3352490101503,15.5795108259
M,J,-24.6084243339763,16.062795077791
M,J,-23.419510842684,16.0332290614004
M,J,-22.1305964518608,16.643524605688
M,J,-17.263075552137,15.6944457302294
M,J,-14.381670985592,14.6220603122254
PN,J,-20.0565982106,15.9861725149039
SD,J,-16.29,15.7
SD,J,-16.11560444,18.4278923756369
SD,S,-16.0079128930239,16.4019073748
SD,S,-15.9466668157045,16.508512179
SD,S,-15.840133228995,16.2721713395
SD,S,-15.8120360847429,16.4240329002
SD,S,-15.6749053967178,16.1193040731
SN,J,-17.6239864744,15.334563578
SN,J,-17.2927740752,15.5263244265
SN,J,-16.4637332833,15.137782812
SN,J,-16.3768910079,15.069511934
SN,J,-16.2799507935,15.1166991585
SN,S,-15.6024713712,17.4972734575
SN,S,-15.3680268336,16.275368874
PN,S,-20.9498694782,17.5514533835
PN,S,-21.5441763074,15.3506325808
PN,S,-20.8973117314,17.8109038104
PN,S,-21.3228273353,16.4265003742
PN,S,-21.4289535548,16.0057699522
