site_2,period_2,d13C,d15N
CA,J,-23.3930284870045,7.8671246142
CA,J,-23.7635510819516,8.2909905716
CA,J,-23.2005052579882,8.4115211756
CA,J,-22.4916697974296,10.4052982501
CR,J,-22.1423413065,13.0303859136
CR,J,-23.3133442213,11.938700052
CR,J,-22.5191692341,12.0311817272
CR,J,-22.0136930624,11.9216110468
M,J,-21.0953070726329,14.8878641248
M,J,-19.68276530825,14.9275893915
M,J,-21.2561920213616,12.9102717871
M,J,-19.9529559863453,14.717519358075
M,J,-23.2454513382658,14.14830871555
PN,J,-24.2956402024525,11.8974102170225
PN,J,-23.994036821884,12.259386544942
PN,J,-24.4843955037482,11.3796261450704
PN,J,-24.137926246481,12.810880894082599
SD,J,-21.8703854924,18.0872442464304
SD,J,-20.5924439516,17.8249687269839
SD,J,-21.4043008007,16.1994309586538
SD,J,-22.2555050269782,15.0874840554
SD,J,-24.5480392940787,13.4816794154
PN,J,-25.0619490706136,11.5757900333
SN,J,-21.3440427017968,15.6605555863
SN,J,-20.6421188337983,14.8476169873
SN,J,-20.238857650344,15.2029012639
SN,J,-22.1217903993619,14.6870365233
SN,J,-20.5939760438926,14.8867584754
PD,J,-22.6012184020252,15.7749887064258
PD,J,-23.3380757752613,13.7892803144453
PD,J,-24.2296152165912,9.36824826856487
PD,J,-23.6034558436978,14.3280950184844
PD,J,-23.771894645622,15.161281306504
PN,S,-23.3447265745862,12.3187673739
PN,S,-23.3394497629543,11.3224290969
PN,S,-23.1927965202988,11.6434714306
CR,S,-22.5685623162024,12.6850978111
CR,S,-22.0371185850106,13.6623144444
CR,S,-23.4967766850293,11.1543599128
CR,S,-22.4634885220891,11.1291998553
CR,S,-23.1143283021001,10.4388078775
PN,S,-23.010506668,11.7344612040853
PN,S,-23.953464114,12.2205947778048
SN,S,-18.2542635029,15.7563369163
SN,S,-19.567196447,15.7974082194
SN,S,-19.8765480705781,14.069505487
SN,S,-18.1875743055709,14.019152377
SD,S,-19.7013903336441,15.6193742128
SD,S,-23.1757232099252,15.660663763
SD,S,-20.5933569116575,16.5891751114
SD,S,-22.5290703838141,14.5906314091
SD,S,-22.8630816805197,14.7565728496
CA,S,-20.9792283532003,7.2167972167
CA,S,-22.3749986313371,6.9130740953
CA,S,-22.6288146818348,7.0488443648
CA,S,-22.2093180790865,5.7122614895
CA,S,-22.4682164892107,5.5040804096
PD,S,-22.62,11.41
PD,S,-22.7318084952,12.3784565799
PD,S,-22.1982450648,12.1340756632
PD,S,-23.6008701432,13.1197115596
PD,S,-22.4367317496,10.8634977021
M,S,-22.4502680029,11.1849911357737
M,S,-23.892796203,9.72079009783404
M,S,-23.4264224952,11.3197341248822
M,S,-23.095317352,9.96873821720992
