Taxa_2,Location,Meand13C,SDd13C,Meand15N,SDd15N,n
Carabids,CA,-22.29921312635696,1.6041047382065985,7.58850858007,0.8063209148214793,10
Carabids,CR,-22.794974769793452,1.1636998044993054,11.33578114917,1.2851521526959215,10
Carabids,M,-23.07182299954344,0.7988607670594949,12.4400358048704,0.4204500030437462,10
Carabids,PD,-24.74647019616751,0.8981420684742184,12.195226653109312,1.3506975007322837,8
Carabids,PN,-24.7742432518891,0.9837390002807366,11.56876997241255,1.4397430870301169,10
Carabids,SD,-23.992265587952023,1.2049351552243555,14.045172305855111,1.6806302884769162,9
Carabids,SN,-22.06411996801925,1.067753971629547,12.710263657,1.70815548803154,10
Carcinus,CA,-19.4359420309632,1.2189441350475179,9.720448142122223,2.112851549170203,9
Carcinus,CR,-14.10095188483,1.928366364372296,13.14487700611279,1.733366576291898,10
Carcinus,M,-15.150813366589993,1.9253210222086663,12.13238923514406,1.3965820264569366,15
Carcinus,PD,-20.49004199232771,1.3839030921504152,13.95085844691324,1.3997051271827683,10
Carcinus,PN,-21.630351336819974,0.820239860779668,15.173375222434236,0.8424199322709361,11
Carcinus,SD,-16.18827788551815,1.4660327980691865,14.71227750222812,0.6468606397061224,10
Carcinus,SN,-18.36827818671308,1.2071805617022573,12.96733600174,0.886471760639127,10
Cicadomorphe,CA,-23.11114126956341,0.4511004275243061,2.17023548286,2.000519991475416,10
Cicadomorphe,CR,-23.53411857405242,0.3362533763148282,5.006506509825,0.6420343141229735,5
Cicadomorphe,M,-20.85861900176588,4.171989809455645,12.5569580809,2.2457052513689035,5
Cicadomorphe,PD,-25.38998204378358,0.8247363107222266,8.450591032297014,1.8229238070378533,9
Cicadomorphe,PN,-24.701487677992326,1.7971317941851621,6.1621208660177675,0.4358027884464408,8
Cicadomorphe,SD,-23.39013564749242,2.6473426559340907,10.73012880587001,1.208793901721585,10
Cicadomorphe,SN,-25.16250185546,1.1493414550817325,9.4221047465,0.5555440887291836,5
Gasteropodes,CA,-21.34024557001021,2.0241720641255543,4.89047719272,2.154197423616568,10
Gasteropodes,CR,-19.1875538976,1.7887257462424848,9.121695401623999,1.0464334343447244,5
Gasteropodes,M,-22.61259028042,0.3088675096927379,4.2232229799442,0.4395585779375972,5
Gasteropodes,PD,-19.483345813349562,2.53794464901282,10.45015444550509,1.008212640973365,10
Gasteropodes,PN,-23.75163425585825,0.2408607424739833,8.912610873249415,1.3802733464457635,10
Gasteropodes,SD,-21.76216186207091,2.7357725054381614,9.519158304311556,0.9863543350014294,10
Gasteropodes,SN,-18.59034044068473,4.719043329072288,10.16341275572,1.7279063927855198,10
Grasshopper,CA,-26.03237795187248,0.3253277661438251,0.90085747168,0.7614108117747611,5
Grasshopper,CR,-24.65716123408,0.5624450153299109,8.06130529568,0.4868742169516261,5
Grasshopper,M,-26.54925464751124,1.274004198223076,6.623097784760348,1.922461669992208,10
Grasshopper,PD,-23.988937056537257,0.7781573729874776,7.027544582454205,1.0444331728490022,7
Grasshopper,PN,-24.42329602691646,0.3113709958620551,7.200641505245144,0.7782338147918617,5
Grasshopper,SD,-27.3035284334091,0.4886751381846098,4.841882377600351,0.569804089499617,10
Grasshopper,SN,-26.845142057017643,2.3818189708247623,6.137826491728571,3.238406017427197,7
Hediste,CA,-19.74408563744,1.6869231549057562,7.82367359104,0.8953734348703678,10
Hediste,CR,-17.34668846555868,2.2108260470571572,12.08022019118337,0.8942141995648059,10
Hediste,M,-16.04827451528738,1.1110259270122418,11.48186562621616,1.214947633532095,10
Hediste,PD,-17.44737426319188,1.3313971934263347,13.13990747232774,1.5534217550776765,10
Hediste,PN,-21.72730434721533,2.23101101626625,14.61655890015679,0.46062583788891504,10
Hediste,SD,-18.24379551234633,2.237431988890776,13.73190463372168,1.0330618654271855,10
Hediste,SN,-16.258267588067245,1.006280210731202,11.137577566677777,1.1074183338150283,9
Orchestia gamarellus,CA,-21.9765950501499,0.6650997758481807,5.836731762033334,1.5019332967183954,9
Orchestia gamarellus,CR,-23.2601168955884,0.7224956143871785,7.632111274051807,0.4296722195111979,10
Orchestia gamarellus,M,-23.062686266230152,0.44994112002168674,7.764971291376624,0.9829589597494256,10
Orchestia gamarellus,PD,-23.37962347880451,0.6031272269158675,9.08636130733355,1.6711978754366108,10
Orchestia gamarellus,PN,-24.68874743026126,0.876951120476286,8.540334125219882,1.2902481810406454,10
Orchestia gamarellus,SD,-22.13457381299769,0.8137570814331019,11.46992909214497,1.5365700699457912,10
Orchestia gamarellus,SN,-21.41398748264745,0.838050416898624,9.59479424454,0.5101333464922494,10
Shrimp,CA,-18.253610718603554,1.837300530190421,10.884314590666667,1.1519785506950804,15
Shrimp,CR,-15.268673696987264,1.46497362035047,13.198140676537179,0.7989223250061989,14
Shrimp,M,-12.9330092781647,0.8636384485816835,11.01796774296059,0.9235411706909754,10
Shrimp,PD,-18.85441378221285,1.2219519916954433,15.1302846023708,0.8816560057425159,10
Shrimp,PN,-20.196121772516687,0.6026554116271544,16.012188975295935,0.6872205371195923,9
Shrimp,SD,-16.55007975703004,2.549662769850092,13.71492358099444,1.412640896981208,15
Shrimp,SN,-15.26828828086435,0.471324173314606,13.62203152805,0.8972585992752807,6
Sphaeroma,CA,-16.55915520897872,1.298199470697666,3.51648832779,1.1448164666133385,10
Sphaeroma,CR,-19.185451415414285,1.464810084254333,9.054325216198373,1.007487161138099,7
Sphaeroma,M,-15.81743260696156,1.162808655355224,7.376269906805001,1.8218301403721617,5
Sphaeroma,PD,-19.03031899309551,1.7093680169893466,8.244120516459017,1.0890605701343468,10
Sphaeroma,PN,-19.35449527797799,1.8140528023002023,8.033567285512746,0.9214479789925349,10
Sphaeroma,SD,-17.81457480812453,1.6851730607153592,10.992782010727,0.8844159073777312,10
Sphaeroma,SN,-16.61726415480329,1.8650619024349109,8.22574618331,1.4632454318742416,10
Spiders,CA,-22.612147873227034,0.8063897205802691,7.4855546874888885,1.4932401252539635,9
Spiders,CR,-22.58081246063315,0.5459306842238097,11.92789660239,0.9816019177580968,10
Spiders,M,-22.01083064221729,1.5613134975088132,12.642867439191651,2.135052452293548,9
Spiders,PD,-23.11319153359975,0.6794267477712457,12.832763511922437,1.9975444179578525,10
Spiders,PN,-23.88148914850186,0.6520854519482358,11.91628177177076,0.47575259237055717,10
Spiders,SD,-21.95332970853175,1.4359773709459116,15.789722474876811,1.437548566643501,10
Spiders,SN,-19.579172937954258,2.0342155445054773,15.22012434887,0.9622704779358524,10
