sp,Site,Vacuite,Date
Atherine,Crozon_ancien,,Juillet
Atherine,Séné_dépol,,Juillet
Atherine,Séné_natur,80,Juillet
Bar,Crozon_ancien,0,Juillet
Bar,Crozon_récent,25,Juillet
Bar,Mesquer,0,Juillet
Bar,Plurien_dépol,100,Juillet
Bar,Séné_dépol,0,Juillet
Bar,Séné_natur,0,Juillet
Gobie,Crozon_ancien,33.3333333333333,Juillet
Gobie,Crozon_récent,100,Juillet
Gobie,Mesquer,100,Juillet
Gobie,Plurien_dépol,60,Juillet
Gobie,Plurien_natur,14.2857142857143,Juillet
Gobie,Séné_dépol,80,Juillet
Gobie,Séné_natur,18.1818181818182,Juillet
Lancon,Plurien_dépol,100,Juillet
Atherine,Crozon_ancien,20,Septembre
Atherine,Séné_dépol,40,Septembre
Atherine,Séné_natur,0,Septembre
Bar,Crozon_ancien,0,Septembre
Bar,Crozon_récent,0,Septembre
Bar,Mesquer,,Septembre
Bar,Plurien_dépol,,Septembre
Bar,Séné_dépol,0,Septembre
Bar,Séné_natur,0,Septembre
Gobie,Crozon_ancien,40,Septembre
Gobie,Crozon_récent,,Septembre
Gobie,Mesquer,80,Septembre
Gobie,Plurien_dépol,40,Septembre
Gobie,Plurien_natur,,Septembre
Gobie,Séné_dépol,100,Septembre
Gobie,Séné_natur,20,Septembre
Lancon,Plurien_dépol,,Septembre
